Book_Name;Writer_FisrtName;Writer_LastName;Publishdate;Page_quantity;Raiting;Price
Zeewerplan;Ivan;Buckley;2000-05-05;145;3;8.60
Thrufropinin;Angelina;Mc Gee;1984-10-12;320;3;5.77
Rapdudimicator;Clifford;Warren;2005-11-27;392;2;9.61
Lomjubommax;Lori;Forbes;1999-02-19;103;6;8.38
Tipdudaquistor;Andre;Kim;2003-04-28;260;5;9.14
Windudefazz;Tom;Nunez;1997-02-15;96;10;8.02
Embanicicator;Gerald;Zuniga;1985-09-09;126;1;5.94
Lomnipedgax;Cindy;Ingram;1977-11-16;428;10;4.52
Bardimanin;Gail;Larson;1992-08-04;168;6;7.19
Tipbanilover;Casey;Anderson;1979-09-29;182;1;4.86
Rapquestanentor;Benny;Livingston;1992-03-05;235;10;7.12
Empickonower;Janette;Perez;1961-05-04;368;4;1.51
Trufropupentor;Hilary;Garcia;1994-08-27;318;0;7.57
Emcadicover;Sandy;Stokes;1985-07-04;31;0;5.91
Grodimicower;Jenna;Daniel;1963-01-04;53;5;1.81
Hapdudimistor;Clifton;Santos;1995-10-06;409;1;7.77
Zeedimommar;Mandi;Hurst;1974-02-24;71;10;3.84
Hapmunegentor;Tracy;Lawson;1992-05-05;388;1;7.15
Partanimin;Kellie;Browning;1999-03-06;346;8;8.39
Trunipilex;Michelle;Ross;1988-01-30;224;2;6.37
Ciptanepazz;Yvonne;Hughes;1986-10-11;111;5;6.14
Uprobedgistor;Terrell;Hale;1970-08-09;270;0;3.20
Rapzapimentor;Sandra;Holt;1953-04-30;234;9;.05
Inmunackazz;Johnny;Browning;1960-01-30;52;8;1.28
Hapweronin;Zachary;Donaldson;1968-11-02;448;2;2.87
Rekiledin;Jenifer;Bentley;1974-03-13;215;8;3.85
Uperepistor;Edward;Wiley;1958-02-04;240;2;.92
Emjubimax;Michelle;Spence;1975-04-17;254;8;4.05
Truvenadax;Hector;Barnes;1964-03-23;180;10;2.04
Uprobackin;Aimee;Barry;2003-03-25;233;1;9.13
Tupweronex;Regina;Levine;1975-02-14;145;0;4.02
Endfropadentor;Justin;Gamble;1954-11-10;123;8;.33
Unfropinentor;Christian;Henderson;1992-01-17;236;3;7.09
Happickanover;Virgil;Adams;1960-08-23;45;1;1.38
Grotanegin;April;Graves;1993-07-30;316;4;7.37
Dopmunupentor;Jeanine;Benton;1954-04-07;404;10;.22
Tipglibegazz;Norman;Vance;1953-01-10;241;1;.00
Vartinefazz;Alfred;Rocha;1978-11-07;202;8;4.69
Grohupicover;Shonda;Mac Donald;1973-05-21;389;2;3.70
Adbanimor;Janette;Russell;1973-01-13;304;8;3.64
Cipzapadex;Autumn;Hill;1959-02-14;367;3;1.11
Winbanepex;Clifford;Day;1974-01-23;255;1;3.82
Ciptinupazz;Johanna;Walters;1983-05-09;379;10;5.51
Tupjubegantor;Diana;Pratt;2005-05-20;283;9;9.52
Grobanedantor;Robin;Hinton;1956-11-17;229;5;.70
Klipebepantor;Christy;Collier;1957-04-29;207;2;.78
Klihupadex;Aimee;Jackson;1973-10-26;172;0;3.78
Zeetumaquax;Jeremy;Robles;1983-04-26;236;5;5.51
Uprobimistor;Kristen;Haynes;1993-04-25;208;6;7.32
Lomhuponor;Cari;Pope;1953-10-15;285;9;.14
Winquestedgor;Jane;Brennan;1958-11-23;346;10;1.07
Endpebackax;Dion;Huffman;1976-04-05;48;10;4.22
Endquestplan;Lynn;Diaz;2006-12-02;364;2;9.80
Trucadamor;Richard;Faulkner;1992-01-26;60;5;7.10
Infropicower;Bryan;Rosales;1974-10-18;362;2;3.96
Klidudedgazz;Jack;Gallagher;1982-09-28;325;2;5.40
Doprobollin;Kelley;Richardson;1984-06-15;104;4;5.71
Froeropover;Eric;Hubbard;1998-10-30;357;5;8.33
Kliglibplor;Chrystal;Ross;1983-04-19;106;4;5.50
Unjubonantor;Arnold;Beck;1982-02-15;63;7;5.29
Tupsipedan;Ben;Mc Dowell;1992-01-12;306;7;7.09
Unglibanan;Rochelle;Ali;1963-05-27;322;3;1.89
Sursipaquicator;Norma;Padilla;1966-08-26;265;0;2.48
Supfropackar;Krystal;Wilkins;1997-05-12;386;5;8.06
Tuprobin;Cody;Long;1957-08-15;54;0;.84
Upmunistor;Colby;Conrad;1990-04-27;129;2;6.78
Parrobopor;Matt;Spence;1977-04-17;150;0;4.41
Groglibackan;Antoine;Ritter;1987-01-05;291;10;6.18
Adjubicator;Yolanda;Rice;1999-12-06;165;7;8.53
Barpickollentor;Jennifer;Hoover;1961-09-29;99;5;1.58
Grobanimin;Robyn;Atkinson;1995-09-26;186;10;7.77
Cippickanin;Scottie;Travis;2003-04-20;320;1;9.14
Lommunexistor;Naomi;Poole;1971-12-17;450;9;3.44
Cipjubackin;Joanna;Harrell;1979-02-22;60;0;4.75
Inpickegin;Cari;Turner;1981-12-16;307;9;5.26
Cipbananex;Alejandro;Ayers;1965-09-19;306;4;2.31
Tipwerupentor;Sonya;Watson;1995-04-03;342;1;7.68
Thruglibax;Jolene;Shah;1955-12-11;401;10;.53
Frodimefazz;Reginald;Glass;1956-03-14;274;2;.58
Parnipegistor;Tomas;Lyons;1964-07-07;259;10;2.09
Tipdimommentor;Ross;Villa;1953-05-19;60;7;.06
Trukiledgex;Toby;Mills;1982-10-11;21;7;5.41
Endsapegistor;Alma;Singleton;1989-12-22;64;1;6.72
Tuppickimin;Angelique;Villarreal;1963-06-09;346;0;1.89
Cipfropefan;Warren;Torres;1997-05-03;337;1;8.06
Raphupicistor;Toni;Powers;2006-11-10;114;0;9.79
Thrumunamor;Lorie;Bonilla;1955-12-09;210;5;.53
Tipvenefan;Dean;Berry;2007-12-23;193;8;9.99
Redudaquover;Jeremy;Townsend;1993-11-05;134;10;7.42
Klipickewan;Amie;Compton;1963-11-03;442;1;1.97
Suppebicator;Corey;House;1977-10-23;318;5;4.51
Winmunackin;Josephine;Weber;1962-03-14;334;7;1.67
Unfropplazz;Jamie;Rich;2003-07-21;113;3;9.19
Emerupover;Adriana;Navarro;1999-04-05;343;5;8.41
Winquestanover;Kenya;Tate;1989-01-01;448;1;6.54
Rapnipantor;Ralph;Mills;2003-09-21;63;10;9.22
Upcadegor;William;Levine;1960-05-30;441;0;1.34
Monnipollex;Marisol;Stout;1993-12-27;444;5;7.45
Lomdudewentor;Shelia;Walton;2000-10-05;246;8;8.68
Rapwerponantor;Gavin;Medina;1974-07-24;117;3;3.91
Emdimopicator;Lydia;Cline;1988-01-12;74;1;6.36
Hapdimicax;Kimberly;Turner;1994-10-21;332;0;7.60
Lomtinommor;Shonda;Vega;1991-05-22;89;9;6.97
Dopjubopantor;Joel;Crosby;1984-07-27;126;1;5.73
Winkilicator;Robyn;Coffey;1966-01-20;117;9;2.37
Untineficator;Tyson;Small;1963-08-06;44;8;1.92
Tippickadan;Franklin;Ward;1957-04-21;49;0;.78
Tipvenimentor;Bryce;Hubbard;1980-10-11;322;2;5.05
Surbanepan;Raul;Crane;1963-02-10;204;6;1.83
Dopmunicicator;Damon;Spears;1962-01-30;74;9;1.65
Emvenonar;Deana;Joseph;1995-06-27;434;1;7.72
Monwerpackantor;Roderick;Gilbert;1981-07-06;153;4;5.18
Enddimewover;Hugh;Macias;1995-08-18;101;2;7.75
Ciptinedar;Jeanne;Rangel;1971-10-13;298;4;3.41
Klirobamistor;Jenifer;Lara;1981-09-30;20;0;5.22
Kliwerexicator;Arnold;Hogan;1962-04-03;302;10;1.68
Doppickaman;Miranda;Keller;1981-06-04;276;2;5.16
Winsipilex;Gretchen;Lozano;1956-03-19;370;10;.58
Rehupedgax;Andres;Bauer;1953-01-10;66;4;.00
Tupbanilor;Denise;Hebert;1958-10-06;391;0;1.04
Uncadplin;Eli;Estes;1987-05-20;370;7;6.25
Supkilewan;Julian;Whitehead;1977-04-25;408;2;4.42
Lomsipplex;Jayson;Velasquez;2001-03-01;175;0;8.75
Unpickimar;Ronda;Welch;1989-02-03;173;6;6.56
Dopdimopex;Hilary;Gillespie;1991-12-08;232;10;7.07
Zeeglibewazz;Leonard;Lyons;1986-07-15;302;3;6.09
Monmunplax;Duane;Lambert;2007-09-30;224;9;9.95
Hapericazz;Lorie;Black;1980-09-12;124;4;5.03
Winerupor;Sherman;Cunningham;1998-02-20;63;10;8.20
Barjubexantor;Tisha;Maynard;1986-03-28;262;10;6.04
Fromunackin;Israel;Hanna;1958-04-23;316;3;.96
Surkilonover;Margarita;Warner;1954-04-07;349;6;.22
Hapwerackantor;Glenn;Mullins;1963-03-07;173;2;1.85
Hapglibepazz;Erin;Horn;1989-08-22;174;9;6.66
Frorobaquazz;Bruce;Valenzuela;1984-06-26;202;9;5.72
Inpebopover;Angelina;Sexton;1966-07-29;178;6;2.46
Emvenadower;Kim;Lynn;1999-05-23;383;9;8.43
Raprobommar;Dianna;Howe;1958-05-29;388;0;.98
Varvenadower;Steven;Stein;2005-05-20;246;1;9.52
Parvenewan;Rhonda;Higgins;1986-09-28;311;3;6.13
Kliweropan;Jack;Obrien;2002-07-22;83;10;9.01
Frorobicax;Jack;Cobb;1983-02-28;338;3;5.48
Qwivenicar;Nina;Reeves;1997-11-13;439;2;8.15
Zeevenar;Jeremiah;Suarez;1984-10-07;78;1;5.77
Bartanplover;Jacob;Greer;1976-05-08;26;10;4.24
Dopfropplex;Cynthia;Weiss;2004-04-18;183;0;9.32
Suptananex;Wesley;Boone;1974-07-28;251;4;3.92
Supbanicator;Rachel;Mata;1984-10-09;266;10;5.77
Groglibedgin;Ginger;Sheppard;1970-07-07;340;5;3.18
Raphupedar;Marsha;Odom;1979-10-01;163;1;4.86
Klihupor;Vincent;Ali;1975-04-19;237;8;4.05
Refropepantor;Elton;Grant;1957-03-13;88;1;.76
Barcadewin;Jackie;Montgomery;1993-12-18;395;1;7.44
Rapjubedax;Laura;O'Neill;1995-01-01;306;8;7.63
Ciptumaquar;Laurie;Wade;1995-03-06;197;7;7.66
Emvenamin;Rodney;Bonilla;1963-09-19;117;9;1.94
Zeerobilower;Brian;Ochoa;2001-08-22;175;0;8.84
Rapcadexan;Daphne;Rivera;1955-04-18;366;3;.41
Rapmunefar;Gabriela;Edwards;2000-08-20;345;1;8.66
Groglibedgax;Raquel;Rivas;1987-07-08;265;6;6.27
Unfropilantor;Clifton;Luna;1963-11-07;270;10;1.97
Emvenedantor;Deborah;Kaufman;1984-08-09;375;7;5.74
Surdiminor;Randall;Franklin;1990-08-21;277;3;6.84
Zeedimepin;Enrique;Hays;1984-11-15;393;7;5.79
Emglibax;Ronnie;Costa;1956-10-09;209;5;.68
Grohupinex;Joanna;Anderson;1994-03-23;102;6;7.49
Tuppebar;Sherrie;Dougherty;1971-05-02;431;2;3.33
Unmunopower;Rita;Cox;1958-12-27;377;3;1.08
Tipvenegistor;Edward;Baker;1995-04-19;113;6;7.69
Admunollin;Kimberley;Ellison;1968-03-04;293;4;2.75
Endtumamantor;Warren;Brennan;1970-11-12;370;1;3.24
Emnipicar;Leon;Cain;1976-01-08;339;2;4.18
Klisipanantor;James;Taylor;1958-10-31;141;9;1.05
Insapanantor;Shawna;Chavez;1974-04-14;206;0;3.86
Doprobanan;Wendy;Serrano;1964-03-16;325;0;2.03
Surzapplor;Gregory;Francis;1957-03-23;50;4;.76
Emquesticover;Victoria;Baldwin;1987-06-13;419;0;6.26
Tipquestewistor;Nichole;Benjamin;1969-05-25;115;10;2.98
Revenollan;Dan;Yoder;1965-09-28;164;6;2.31
Hapweranor;Blake;Carlson;1995-08-21;66;9;7.75
Barglibedar;Isabel;Hardin;1964-12-19;69;9;2.17
Monsapedgentor;Mandy;Figueroa;1975-12-22;409;10;4.17
Truzapefistor;Beverly;Schneider;1963-03-10;234;10;1.85
Cipdudilar;Marci;Montgomery;1971-05-23;350;8;3.34
Enddudicax;Rachel;Rodriguez;1963-12-10;42;1;1.98
Supnipollover;Darrin;English;1954-02-10;245;2;.20
Bartinanor;Maureen;Barnes;1968-04-20;405;5;2.78
Hapsaponor;Marcia;Hickman;1976-03-06;317;5;4.21
Cippickamicator;Shari;Beck;2002-06-18;427;2;8.99
Emeredazz;Regina;Giles;1973-10-08;103;10;3.77
Adjubicor;Janine;Wheeler;1972-12-07;21;6;3.62
Uppickplax;Wayne;Arias;1997-02-05;35;6;8.01
Grokilackar;Carrie;Bullock;1965-10-09;61;9;2.32
Varzapefax;Brent;Warren;1970-11-13;432;5;3.24
Thruweregin;Shad;Ferrell;1975-11-23;58;3;4.16
Froquestexazz;Katrina;Watts;1970-12-14;158;3;3.26
Upbanplin;Regina;Obrien;2000-07-09;79;10;8.64
Zeekilupantor;Lillian;Stevenson;1965-12-30;63;5;2.36
Cippebepover;Gavin;Mccall;1980-12-30;320;6;5.09
Tipdudollentor;Christy;Holloway;1990-02-16;374;4;6.75
Monvenommistor;Mario;Hurst;1985-12-18;203;9;5.99
Hapsipexover;Jana;Cain;1968-08-01;324;1;2.83
Varsapepentor;Leroy;Haley;1997-06-23;170;3;8.08
Froerackicator;Cassie;Woods;1955-05-05;65;0;.42
Cipfropplex;Caleb;Leonard;1961-11-20;244;10;1.61
Winglibanex;Alan;Marquez;2007-04-11;349;6;9.86
Winsapollower;Julie;Daniels;2006-05-14;398;3;9.70
Barkilollin;Cassandra;Harrison;1972-09-05;206;0;3.57
Zeedimplar;Brock;Sanders;1983-10-18;432;7;5.59
Winjubplistor;Gretchen;Levy;1990-12-15;165;2;6.90
Cipkilefor;Andrea;Serrano;1984-04-07;148;8;5.68
Thruwerollentor;Marisa;Johns;1985-03-30;78;1;5.86
Redudupazz;Rhonda;Zimmerman;1997-07-20;219;7;8.10
Dopglibicex;Moses;Landry;1957-12-31;296;3;.90
Sursapewicator;Charlene;Boyle;1975-07-20;214;8;4.09
Hapsipedgistor;Patrice;Gamble;1995-11-16;312;0;7.79
Lomzapanicator;Gene;Berg;1974-06-03;158;7;3.89
Emtinonower;Guy;Osborn;1972-03-31;377;5;3.49
Emhupilentor;Marcie;Hatfield;1973-12-07;369;5;3.80
Gropebanar;Dominic;Berry;1955-08-31;414;3;.48
Zeerobexower;Ralph;Mcpherson;1978-12-03;148;0;4.71
Gropebilan;Betsy;Carter;2003-02-26;131;7;9.11
Barpickexover;Tonia;Mcintosh;1964-07-11;400;1;2.09
Suprobinicator;Latoya;Obrien;1974-07-12;28;6;3.91
Varhupexistor;Devon;Hoover;2003-03-29;289;8;9.13
Froquestower;Lakisha;Moses;1981-10-07;352;6;5.23
Supkilewazz;Crystal;Mahoney;1963-04-02;295;3;1.86
Adpebackor;Valerie;Lynn;1995-12-18;160;3;7.81
Insapommar;Latoya;Wells;2006-05-22;165;8;9.70
Embanaquover;Carlton;Garza;2001-04-03;184;7;8.77
Surnipommin;Christina;Schmidt;1964-09-13;421;4;2.12
Endcadollax;Rachel;Mooney;1974-06-15;374;5;3.90
Inpickedgor;Brandon;Reynolds;1996-05-26;246;4;7.89
Emerilicator;Troy;Rose;1983-08-13;241;2;5.56
Truvenepover;Robbie;Briggs;1962-09-03;314;0;1.75
Vardudedower;Jolene;Franklin;2004-05-20;195;8;9.34
Frohupicazz;Malcolm;Weiss;1986-07-01;256;6;6.09
Thrudimor;Alan;Tucker;1960-11-05;186;9;1.42
Infropollover;Brad;Zavala;1962-07-04;124;9;1.72
Surnipewentor;Esther;Hutchinson;1964-08-31;143;6;2.12
Upsapicantor;Jarrod;Patrick;1955-09-30;298;10;.49
Supwerpadazz;Kyle;Esparza;2003-08-15;216;4;9.20
Vartanadower;Troy;Shannon;2000-05-19;336;9;8.61
Monweraquistor;Staci;Mc Gee;1964-07-05;280;0;2.09
Truveninax;Gavin;Mccoy;1997-07-02;406;1;8.09
Requestepor;Bobby;Hood;1995-09-10;394;5;7.76
Trubanentor;Audra;Cannon;2007-07-19;266;9;9.91
Dopnipexistor;Felix;Faulkner;1960-10-09;215;6;1.41
Hapbanommentor;Lori;Robbins;2003-04-27;235;8;9.14
Thrueredar;Jason;Davis;1988-01-07;197;2;6.36
Hapwerpinex;Jasmine;Vance;2004-07-13;450;6;9.36
Grozapplentor;Terri;Jensen;1981-04-10;153;4;5.14
Tiptinommistor;Anita;Mack;2000-01-24;145;0;8.55
Rerobilex;Luke;Decker;1978-05-03;356;2;4.60
Unquestewistor;Ebony;Glenn;1964-03-16;243;3;2.03
Grozapicax;Alma;Koch;1990-10-23;89;1;6.87
Barsipefin;Jo;Gentry;1957-01-21;374;10;.73
Lomcadadicator;Stuart;O'Neill;1975-12-14;160;7;4.17
Surkilamicator;Linda;Nash;1960-02-07;227;2;1.29
Supsapepin;Sonia;Parsons;1988-02-14;342;3;6.38
Barnipollistor;Rafael;Copeland;1997-01-10;71;2;8.00
Undimedicator;Byron;Neal;1963-05-29;255;10;1.89
Klicadanentor;Cecil;Kidd;1974-04-17;59;3;3.87
Grobanonin;Zachary;Haley;1990-07-17;265;10;6.82
Endkilollazz;Kelvin;Conway;1979-04-03;195;8;4.77
Tupkilanover;Bobby;Cameron;1962-10-25;225;3;1.78
Qwirobplin;Cesar;Calderon;1996-11-03;283;8;7.97
Partanicex;Mary;Gardner;1966-12-09;429;5;2.53
Zeeericax;Ashley;Lambert;2003-04-29;432;2;9.14
Varpebepentor;Darcy;Huff;1979-03-01;36;10;4.75
Zeesapefin;Clint;Schroeder;1962-05-19;74;5;1.70
Doprobupar;Barbara;Pham;1966-07-30;422;8;2.46
Supzapinor;Ana;Edwards;1962-09-29;270;7;1.77
Monquestedover;Dawn;Powers;1962-04-09;243;10;1.68
Varpebadover;Marcos;English;2007-12-01;134;4;9.98
Frorobadicator;Kari;Mcgrath;1983-04-21;383;7;5.50
Rezapepex;Shane;Zimmerman;1955-10-10;245;9;.50
Supkilopar;Roger;Bowen;1953-01-06;138;1;.00
Rapjubexower;Angie;Haney;1985-01-09;73;4;5.82
Dopkilupicator;Clay;Fritz;1960-07-19;346;3;1.37
Monnipadar;Natalie;Sherman;1982-03-22;104;8;5.31
Adtumamicator;Brandy;Novak;1955-06-24;98;8;.45
Fromunommor;Anthony;Conner;2000-08-23;375;5;8.66
Winglibonax;Allyson;Marshall;1971-05-17;419;5;3.34
Barkilefin;Tammi;Wilkins;2004-09-21;184;0;9.40
Parfropicazz;Luis;Spence;1991-06-06;286;0;6.98
Frotanexar;Natasha;Montoya;1982-05-23;246;5;5.34
Undudewentor;Patrick;Gallegos;1971-01-25;340;1;3.28
Tupfroponentor;Kareem;Holloway;1972-05-30;448;9;3.52
Kliweramex;Frankie;Rubio;1979-11-12;243;9;4.88
Supdudadar;Ronald;Solis;2000-04-29;272;8;8.60
Aderommor;Irene;Schmitt;1963-07-19;113;9;1.91
Barkilewentor;Alisa;Morrow;1953-09-29;410;7;.13
Suprobamentor;Juanita;Norton;1982-05-20;233;5;5.34
Vartumicantor;Julia;Myers;1975-08-21;90;3;4.11
Klihupegistor;Gordon;Fernandez;2000-05-04;60;10;8.60
Cipbanamin;Tameka;Braun;1982-05-01;175;1;5.33
Supvenilover;Marlene;Landry;1962-11-04;89;9;1.78
Hapsipupistor;Jean;Zamora;1993-04-03;103;2;7.31
Moneriman;Wendy;O'Neal;1987-09-09;198;9;6.30
Tipwerpimin;Renee;Martin;2006-11-06;129;8;9.79
Cipdudedgistor;Edgar;Weber;1993-08-10;288;4;7.38
Retininex;Jenny;Allison;1965-06-13;234;3;2.26
Intumilentor;Rachelle;Mayer;1977-02-26;217;8;4.39
Endhupexantor;Joshua;Collier;1978-08-21;140;8;4.66
Monsapegan;Terrell;Spencer;1990-12-16;45;8;6.90
Lomsipedgentor;Dion;Hawkins;1971-07-13;333;8;3.36
Bardudanentor;Garry;Castillo;1990-10-18;352;0;6.87
Lomhupefover;Christian;Krueger;1978-06-02;239;8;4.62
Fropebepower;Leon;Mac Donald;1988-11-25;311;7;6.52
Dopkilegentor;Alice;Chambers;1988-01-15;294;3;6.37
Tiptumplazz;Sherry;Cortez;1957-01-16;253;9;.73
Parerupex;James;Koch;1998-12-04;105;3;8.35
Mondudedgistor;Robert;Booth;2007-07-21;331;9;9.91
Inquestentor;Elias;Allen;1958-11-26;256;6;1.07
Varkililantor;Thomas;Andrade;1994-07-21;424;5;7.55
Thruglibimicator;Guy;Blevins;1970-10-06;330;5;3.22
Qwikilanar;Jordan;Yu;1955-12-02;90;8;.53
Superplower;Marlon;Neal;1993-10-26;98;9;7.42
Zeequestamar;Jessie;Cantu;1995-10-28;359;8;7.78
Qwinipanover;Shonda;Collins;1988-06-04;429;8;6.44
Thrutinopistor;Sonny;Key;1978-10-11;393;6;4.68
Tipzapackax;Raymond;Wiggins;2002-07-12;432;6;9.00
Winbananax;Clarissa;Tate;1976-06-17;206;4;4.26
Windudepar;Shawn;Gomez;1986-11-01;214;2;6.15
Trutanollover;Tracy;Rivas;2006-10-31;411;6;9.78
Qwivenupax;Salvatore;Mc Neil;1965-10-31;30;1;2.33
Winzapedax;Jesus;Massey;1988-05-11;55;1;6.42
Monpebeficator;Marvin;Lawrence;1994-08-19;171;6;7.56
Unwerackazz;Vicky;Cochran;1960-07-30;91;5;1.37
Kliweredgover;Philip;Ritter;1953-12-22;226;5;.17
Upcadackicator;Ana;Velasquez;2000-12-05;174;0;8.71
Doptumopazz;Kenneth;Vance;1967-10-05;53;9;2.68
Inquestedgax;Oscar;Alvarado;2005-05-02;325;5;9.51
Adwerpinentor;Dana;Rollins;1961-09-13;235;6;1.58
Cipdimommentor;Leanne;Rose;1996-08-11;266;4;7.92
Updimepower;Dante;Nunez;1998-01-10;314;4;8.18
Bardudollazz;Brent;Barron;1976-06-27;176;8;4.27
Supmunedgazz;Katherine;Massey;2000-09-25;296;8;8.67
Supbanonor;Christi;Park;1966-10-08;156;3;2.50
Hapglibilicator;Dale;Pruitt;1972-11-24;404;2;3.61
Thrududepar;Sally;Fitzgerald;1999-08-06;344;5;8.47
Froglibegower;Staci;Mcclain;2000-08-25;119;3;8.66
Parfropopar;Jesus;Blevins;1991-07-05;154;2;7.00
Tupdudollan;Sandra;Bass;1999-10-29;399;5;8.51
Upzapanin;Antonio;Harrison;1996-04-14;36;9;7.87
Supglibedentor;Pamela;Carr;1972-08-14;26;6;3.56
Doppebplazz;Salvatore;Cordova;1954-03-11;96;8;.21
Endsipegax;Kathy;Frank;1976-06-25;427;10;4.26
Uneregazz;Donovan;Fischer;1989-01-31;116;9;6.56
Grodudaman;Curtis;Mc Daniel;1982-07-31;181;5;5.37
Klivenadentor;Marcos;Barnes;1979-05-31;102;4;4.80
Rapwerefower;Tameka;Lindsey;1977-01-09;441;10;4.36
Emmuninex;Darla;Coffey;2005-06-06;194;4;9.53
Parwerpexin;Susan;Cline;2007-04-07;220;1;9.86
Sursipepistor;Laurie;Jackson;1981-01-26;187;1;5.10
Surtanonantor;Alfonso;Hodge;1999-01-30;306;8;8.37
Empebadentor;Jocelyn;Gordon;1996-12-26;45;9;7.99
Klidudilistor;Misty;Lozano;1998-04-27;20;6;8.23
Wintanadar;Hannah;Brown;1979-10-22;180;1;4.87
Tipkilopantor;Kelly;Burke;1978-02-15;33;7;4.56
Suptinefentor;Jocelyn;Shields;1991-03-03;295;7;6.93
Surbanommicator;Erin;Mccann;2004-02-29;199;4;9.30
Barglibadin;Tonia;Thornton;1970-11-03;166;3;3.24
Klimunower;Ruth;Berger;1987-12-06;102;1;6.35
Trupickedex;Jodie;Mcfarland;1995-02-09;138;2;7.65
Hapdimanan;Joan;O'Neal;1997-04-13;218;0;8.05
Suppebplax;Lorenzo;Moran;2001-08-04;231;8;8.83
Thrukilegex;Corey;Vance;1998-11-07;114;3;8.33
Endglibilistor;Tomas;Bernard;1970-04-16;440;2;3.14
Upglibexar;Rose;Reeves;2004-07-10;127;0;9.36
Parwerpimower;Jonathan;Medina;2002-04-10;172;7;8.95
Frorobanin;Timmy;Powers;1963-03-09;245;10;1.85
Grosapplantor;Andre;Osborn;1980-01-20;392;6;4.91
Tuphupamin;Rene;Nguyen;1975-12-05;406;6;4.16
Vardudefentor;Marcia;Beard;1996-10-29;102;2;7.96
Dophupegazz;Rhonda;Lowe;1986-02-16;292;3;6.02
Supmunexax;Quentin;Galvan;1964-01-08;295;3;2.00
Adsipplower;Jasmine;Richmond;1984-08-20;257;9;5.75
Happickamar;Tania;Holden;1998-07-20;196;3;8.28
Ciptinupan;Shelby;Gregory;1987-03-19;403;0;6.22
Endfropegar;Walter;Murphy;1964-08-22;384;4;2.11
Emtumonistor;Esteban;Griffin;1964-11-17;78;2;2.15
Klipebonower;Kirk;Mayer;1958-07-20;72;8;1.00
Tupdimonin;Ray;Peters;1985-12-31;361;10;5.99
Sursipackor;Cindy;Moyer;1982-07-25;142;1;5.37
Truquestefor;Sylvia;Sanchez;1976-11-27;184;0;4.34
Zeerobupex;Michele;Peck;1970-04-30;310;4;3.15
Barpickedgar;Michael;Andrade;2006-01-26;122;4;9.64
Upkilonex;Erik;Krause;1988-08-18;65;5;6.47
Frotumanower;Holly;Whitaker;2005-07-13;410;6;9.55
Survenommazz;Cecil;Dixon;1954-01-16;287;6;.18
Zeefropanex;Blanca;Terrell;1986-03-03;173;2;6.03
Tuptinupover;Cody;Copeland;1973-12-06;134;7;3.80
Admunonor;Candy;West;1996-08-22;141;6;7.93
Uptanegentor;Kareem;Alexander;1989-09-23;126;5;6.67
Kliglibonentor;Cornelius;Clarke;2003-06-07;163;0;9.16
Varbanilicator;Ruby;Graves;1982-10-23;403;10;5.42
Varmunollistor;Elton;Washington;1956-07-30;70;0;.65
Suptanador;Donnie;Ho;1957-09-20;279;2;.85
Ciptinedazz;Janice;Barton;2007-01-02;269;9;9.81
Frotanexentor;Victor;Hayden;1979-01-11;245;9;4.73
Klifropefower;Clinton;Richards;1963-05-05;433;4;1.87
Cippebackar;Julia;Allison;1959-03-13;438;8;1.12
Upwerpopar;Bret;Rivera;1992-07-23;439;8;7.19
Resapplazz;Irene;Porter;1988-04-21;27;8;6.41
Groweradantor;Lisa;Peck;1969-03-24;308;4;2.95
Grotinilan;Elena;Brock;2004-12-21;66;3;9.44
Dopwerpewex;Nicole;Vaughan;1982-07-04;239;9;5.36
Thruwerpistor;Warren;Ewing;1963-06-09;136;9;1.89
Inbanantor;Tony;Yoder;2002-12-11;346;9;9.08
Raptinommower;Cheryl;Raymond;1988-01-23;29;4;6.37
Winglibewover;Jermaine;May;1965-05-08;238;10;2.24
Dopsipaquor;Laura;Mahoney;2007-10-09;275;2;9.95
Lomdimegin;Drew;Stafford;2000-08-04;227;0;8.65
Dopvenedgazz;Kelly;Schmidt;1966-06-27;100;2;2.45
Upbanedgower;Catherine;Morton;1979-04-17;235;5;4.78
Endzapicator;Devon;Griffin;1998-08-13;144;7;8.29
Lomfropedgex;Janice;Palmer;1992-11-02;256;3;7.24
Truvenimover;Otis;Lynn;1958-05-15;411;0;.97
Froglibinan;Brendan;Hendricks;1971-03-15;405;2;3.30
Frowerpicor;Erich;Sanford;1979-12-15;359;6;4.90
Supdudplistor;Karl;Jacobson;2003-07-10;127;3;9.18
Emsipican;Dexter;Ellison;1963-03-23;66;9;1.85
Rapfropommentor;Victor;Powers;1972-10-04;47;6;3.59
Tiperepicator;Marie;Duncan;2003-06-26;291;5;9.17
Surmunegax;Leticia;Guzman;1969-02-08;449;5;2.92
Qwibanegax;Chastity;Durham;1997-04-03;128;3;8.04
Empickimazz;Roy;Nixon;1991-05-30;269;10;6.98
Haphupinentor;Benny;Riggs;1994-03-13;298;0;7.49
Klibanimicator;Darlene;Dunn;2001-05-25;389;2;8.79
Repebplar;Steve;Ritter;1956-04-26;339;3;.60
Kliglibinax;Damian;Golden;1960-06-11;243;2;1.35
Kliglibewower;Sonny;Simmons;1979-12-02;429;7;4.89
Thrurobanantor;Jarrod;Lindsey;1999-07-18;377;5;8.46
Uptumewex;Tracie;Miranda;1961-03-09;176;2;1.48
Emhupamor;Marisa;Clements;1954-04-21;402;10;.23
Adwerefantor;Arthur;Cabrera;1958-09-08;91;5;1.03
Retinaquazz;Kerri;Melendez;1973-12-27;84;10;3.81
Dopdimicazz;Luke;Campbell;2005-09-10;351;2;9.58
Tupglibonex;Austin;Wood;1966-05-03;285;7;2.42
Haptinamor;Matthew;Weiss;1979-12-08;135;8;4.89
Monrobedower;Frederick;Travis;1995-10-28;89;6;7.78
Supbananower;Jason;Kemp;1995-08-20;437;5;7.75
Tupglibinor;Rita;Wheeler;1993-09-07;170;6;7.39
Rapmunplover;Brooke;Pruitt;1970-06-21;399;1;3.17
Grotumador;Pete;O'Connell;1996-09-09;66;6;7.94
Upkilanover;Miguel;Gordon;1986-05-26;349;10;6.07
Unhupopazz;Kirk;Ali;1981-05-03;357;6;5.15
Emmunedower;Lindsay;Bird;1983-02-27;58;4;5.48
Bardimeficator;Darnell;Nash;1963-06-09;342;0;1.89
Frodimonover;Stephanie;Baldwin;1957-10-26;36;4;.87
Indudefazz;Dwight;Gardner;1997-12-20;165;7;8.17
Inzapanex;Kara;Guerrero;2006-03-18;109;0;9.67
Frosipupar;Marco;Hall;1994-07-08;325;0;7.54
Froeraquentor;Brian;Flowers;1980-01-20;361;2;4.91
Varnipollin;Lorena;Daniels;1983-07-05;136;5;5.54
Endsipplor;Tami;De Leon;1953-02-12;384;6;.02
Emwerefan;Corey;Rios;1994-06-08;408;1;7.53
Endrobonover;Bruce;Friedman;1997-01-28;166;3;8.01
Cipdimanicator;Dylan;Proctor;1972-03-14;28;2;3.49
Varpebimazz;Misti;Flores;1979-12-22;197;1;4.90
Cipdimonan;Colby;Grimes;1966-07-25;248;3;2.46
Wintanantor;Lora;Church;1996-04-23;391;8;7.87
Dopwericar;Rebekah;Hickman;1970-01-15;197;7;3.09
Tipnipimor;Krystal;Durham;1999-08-18;24;6;8.47
Ciperedgover;Manuel;Nichols;1980-08-14;237;1;5.02
Hapfropupax;Abraham;Rose;1993-06-07;260;3;7.35
Cipjubewazz;Ronnie;Barnett;1961-03-25;348;7;1.49
Truvenplentor;Rex;Weber;1992-05-28;69;9;7.16
Grodimefin;Alma;Vazquez;1965-03-08;148;2;2.21
Retinupover;Martin;Forbes;1973-08-10;162;0;3.74
Dopwerpupar;Adrienne;Griffith;1977-08-17;78;7;4.47
Qwisipiman;Jamal;Cole;1995-02-22;355;1;7.66
Supvenewantor;Deana;Middleton;2000-01-13;144;3;8.55
Tuptanommax;Rolando;Willis;1999-04-08;287;4;8.41
Surkilinantor;Geoffrey;Good;1992-02-17;288;0;7.11
Zeerobommover;Nina;Kidd;1960-11-20;141;9;1.43
Hapjubegax;Carol;Weiss;1977-07-15;347;2;4.46
Superewantor;Drew;Combs;1955-04-17;99;4;.41
Endsapefazz;Andrea;Vega;1959-10-17;243;10;1.23
Unpebinar;Leo;James;1990-09-16;118;5;6.85
Upvenicor;Lakesha;Rubio;1968-12-01;221;7;2.89
Supglibilistor;Shawna;Petty;1961-04-03;228;6;1.50
Sursipinover;Stuart;Park;1983-10-05;406;0;5.59
Tiptinewazz;Sylvia;Raymond;1996-07-30;371;8;7.92
Adwerpollistor;Meghan;Arias;1966-05-07;191;6;2.42
Uprobepower;Rocky;Dawson;1962-03-26;151;2;1.67
Surglibonazz;Israel;Richardson;1993-05-26;121;6;7.34
Upkilinin;Sherrie;Petty;1972-06-28;34;2;3.54
Kliweraquover;Jamal;Fuller;1985-09-04;57;8;5.94
Grobanewin;Jeannie;Daniel;1954-03-09;36;3;.21
Uperilor;Simon;Bishop;1972-04-01;133;3;3.49
Monnipaquor;Megan;Sheppard;1984-11-29;369;7;5.80
Tiphupollor;Matthew;Marshall;1986-06-30;341;10;6.08
Rapnipedgor;Sonia;Lopez;1994-05-13;105;6;7.52
Emhupimicator;Gene;Maddox;1966-05-16;338;4;2.43
Hapvenegax;Miguel;Howard;2007-07-07;148;8;9.91
Suptinonicator;Eugene;Villegas;1978-08-06;257;9;4.65
Zeetumador;Loren;Norton;2002-01-21;163;0;8.91
Parhupadin;Malcolm;Flowers;1997-11-07;180;0;8.15
Sursapommazz;Lakesha;Mckee;1956-04-04;257;2;.59
Lompebimicator;Carrie;Benton;1978-03-03;18;3;4.57
Trudimegistor;Kim;Boyer;1996-12-06;306;8;7.98
Frowerommantor;Jeff;Villarreal;1970-12-22;360;1;3.26
Zeewerpewistor;Roland;Valencia;1997-10-30;198;0;8.15
Winsapomman;Tyler;Bright;1988-03-11;409;8;6.39
Rapfropanantor;Alexander;Bell;1955-10-29;261;6;.51
Lomsipexistor;Damon;Olsen;1959-03-07;416;7;1.12
Endtanupan;Dustin;Bentley;2003-04-02;56;7;9.13
Varzapewistor;Angelia;Parrish;1995-12-03;91;2;7.80
Hapmunefantor;Tamara;Gardner;1975-08-16;446;6;4.11
Upcadedgar;Angelica;Good;1983-07-31;54;4;5.56
Tiphupinistor;Dana;Orr;1992-02-23;327;7;7.11
Supwerpadicator;Candy;Carson;1990-04-14;373;4;6.77
Frowerponicator;Erica;Rush;1989-06-29;361;7;6.63
Qwikilopistor;Cindy;Peters;1964-01-21;426;4;2.00
Frozapupax;Suzanne;Shannon;1958-04-24;37;8;.96
Frotumilantor;Lorena;Serrano;1965-07-20;436;8;2.28
Dopsipicentor;Jo;Travis;1981-06-18;277;9;5.17
Retumicicator;Amy;Odom;1986-04-13;284;10;6.05
Tipdudexentor;Jayson;Mc Mahon;1971-05-22;103;10;3.34
Dopzapefex;Christi;Jenkins;1953-01-12;157;8;.00
Tippickimower;Colby;Le;1996-09-26;332;4;7.95
Lomeraquazz;Paige;Lutz;1959-09-24;29;0;1.22
Emvenewax;Margaret;Joyce;1964-01-01;130;9;1.99
Lompickadazz;Mike;Moon;1954-05-12;46;7;.24
Haperedentor;Jayson;Leon;2000-09-17;160;0;8.67
Bartanewex;Leanne;Osborn;1961-08-26;31;1;1.57
Monfropackistor;Sonya;Stark;1958-09-02;56;8;1.03
Winrobopar;Lisa;Byrd;1985-11-23;400;0;5.98
Lomcadamantor;Denise;Sosa;1992-08-13;158;2;7.20
Lomwerpaquex;Katrina;Cruz;1990-04-17;334;0;6.78
Thrutaninan;Clinton;Phillips;1983-06-25;201;1;5.54
Adhupollicator;Monica;Wilson;1965-06-09;370;4;2.26
Thrusipanan;Nina;Dickerson;1956-07-15;436;7;.64
Tupquestommover;Ericka;Burke;1965-07-16;117;2;2.27
Injubewistor;Quentin;Austin;1979-12-27;366;10;4.90
Parnipamower;Shelby;Vega;1998-04-13;318;4;8.23
Tupnipilazz;Monique;Odonnell;1993-12-06;226;10;7.44
Tupjubefar;Kathryn;Arroyo;1961-05-21;412;0;1.52
Emsapommentor;Natalie;Conway;1963-07-10;380;0;1.91
Cipfropicazz;Garrett;Vaughan;1956-01-20;186;5;.55
Upmunegan;Dana;Chen;1998-02-24;83;10;8.20
Tipvenommazz;Bradley;Contreras;1984-07-27;393;0;5.73
Lomsipewin;Brandon;Wood;1963-01-21;62;1;1.82
Lompebamex;Ricardo;Frank;1978-08-09;432;10;4.65
Supfropimicator;Bryant;Ochoa;1988-02-08;257;6;6.38
Upwerpamin;Kristin;Zimmerman;2002-08-18;446;2;9.02
Tupnipackan;Carrie;Sandoval;2004-12-31;430;3;9.45
Truglibedgex;Shelia;Shah;1983-04-24;130;1;5.51
Unsipamantor;Andres;Carpenter;1961-01-23;319;7;1.46
Trutanilower;Tracey;Velasquez;1994-12-18;162;10;7.62
Adbanepex;Keith;Archer;2005-02-17;431;10;9.47
Klisipollover;Jana;Hoover;1968-10-11;330;1;2.86
Adfropazz;Latisha;Melendez;1979-06-19;94;0;4.81
Empebamor;Julie;Roy;1956-03-24;118;4;.58
Hapsapackicator;Sidney;Sparks;1989-06-07;137;9;6.62
Surmunackax;Betty;Grimes;1990-03-15;294;7;6.76
Zeerobupan;Tammie;Andrade;1959-12-22;248;2;1.26
Dopjubicin;Chanda;Moyer;1996-06-21;169;3;7.90
Thrufropimor;Jorge;Aguirre;1995-06-24;266;7;7.72
Surhupamicator;Jordan;Brooks;2002-03-05;247;4;8.94
Insapinicator;Marisa;Buckley;1953-07-05;377;10;.09
Barglibonax;Everett;Lara;1970-05-10;106;6;3.15
Varzapopin;Stacy;Howe;1956-04-21;384;10;.60
Ciperupex;Marvin;Fisher;1993-04-30;129;6;7.33
Cipjubupover;Gordon;Stuart;1953-02-06;304;2;.01
Klivenaquower;Melanie;Roach;1979-09-16;407;3;4.85
Kliwerpackentor;Ramon;Hooper;1986-10-01;387;7;6.13
Emdudupentor;Pedro;Gates;1976-12-15;262;5;4.35
Hapsipedin;Kristy;Mercer;1992-01-25;78;5;7.10
Grosapaquazz;Stefanie;Hardy;1968-01-12;169;3;2.73
Upnipinicator;Alfred;David;1979-08-15;227;8;4.83
Tippickanower;Janelle;Mc Donald;1973-01-28;315;8;3.65
Dopsapewan;Christy;Jacobs;1975-10-05;355;9;4.13
Thruhupegex;Eugene;Cooley;1968-05-03;367;5;2.78
Rapquestexax;Rodney;Meza;1962-11-19;91;9;1.79
Cipkilewex;Devon;Howard;1965-03-03;389;4;2.21
Frosapupazz;Teddy;Cherry;2004-09-03;418;10;9.39
Endquestamentor;Whitney;Lloyd;1993-05-24;149;10;7.34
Indimopin;Carla;Wheeler;1974-04-03;240;1;3.86
Supquestopentor;Tamika;Alvarez;2006-01-31;165;8;9.65
Tipfroponentor;Lorie;Merritt;1964-08-25;52;9;2.11
Winmunonor;Sherrie;Cherry;1983-05-12;376;7;5.52
Winkilimentor;Michael;Fisher;1977-11-01;99;4;4.51
Rappickepistor;Terry;Steele;2005-08-27;446;3;9.57
Parfropefantor;Emily;Marshall;1993-02-27;354;0;7.30
Fromunepover;Ruben;Cochran;1967-09-14;322;0;2.67
Suppebanower;Brent;Little;1993-12-22;293;4;7.45
Adglibonover;Lora;Gamble;1953-04-24;336;2;.05
Revenewover;Stephanie;Hendricks;1984-02-08;430;3;5.65
Zeehupistor;Trenton;Dalton;1997-10-14;89;2;8.14
Qwifropommistor;Kenya;Walter;1991-04-23;88;2;6.96
Bartanplantor;Ericka;Blanchard;2005-06-17;75;7;9.53
Frotinanistor;Alan;Mc Daniel;1973-11-27;164;4;3.80
Emtumanax;Helen;Wiggins;1969-05-07;150;6;2.97
Fropebicantor;Mathew;Reed;1955-07-18;260;6;.46
Tupzapegantor;Devin;Mccall;1980-10-17;427;3;5.05
Cipnipepor;Linda;Velasquez;1981-04-07;27;0;5.13
Barsaponistor;Tonia;Riddle;1977-09-23;383;6;4.49
Endbanepentor;Denise;Franco;1978-07-03;145;8;4.63
Upkilewor;Charles;Dunlap;1961-05-26;300;3;1.52
Enderepar;Damian;Mullins;1968-11-17;76;6;2.88
Kliquestonax;Adrienne;Beasley;1981-01-17;185;8;5.09
Adtumadicator;Robert;Richmond;1999-03-30;70;6;8.40
Tuppickadover;Alisa;Fry;2001-01-11;167;4;8.73
Barkilex;Jon;Yoder;1968-05-06;386;1;2.78
Insapinantor;Mary;Shah;1985-01-21;134;1;5.82
Zeeerimax;Rodney;Estrada;2001-01-06;426;2;8.73
Parkiledentor;Jamison;Mccall;1964-02-17;178;6;2.02
Thrusipackar;Colby;Velazquez;2001-05-05;44;6;8.78
Emnipefor;Rogelio;Brady;1977-04-07;199;4;4.41
Cipdudinax;Gregory;Nolan;1993-07-11;327;8;7.36
Dopfropegan;Suzanne;Ferguson;1974-07-30;116;3;3.92
Raptinefor;Marlon;Russo;1975-03-21;379;2;4.03
Cipdudimantor;Cassandra;Hardy;1997-05-24;119;10;8.07
Tupnipupantor;Dominic;Hardy;1990-07-11;213;6;6.82
Cipglibackazz;Carrie;Benton;1978-02-24;18;3;4.57
Endquestilower;Hector;Newton;2000-07-09;25;2;8.64
Suphupplan;Marlene;Carrillo;1958-08-26;389;7;1.02
Varzapollover;Damon;Haney;1953-03-04;226;5;.03
Qwimunupar;Katrina;Cortez;1993-05-26;433;1;7.34
Endwerpamex;Tanisha;Saunders;1993-09-24;132;10;7.40
Adtanedgantor;Regina;Downs;1986-06-10;69;4;6.07
Surmunackor;Julian;Blanchard;2000-11-06;282;1;8.70
Aderaquistor;Amanda;Benson;2002-04-13;439;2;8.96
Cipdimplantor;Dina;Escobar;1984-09-21;98;1;5.76
Redimplazz;Tameka;Huerta;1982-02-27;170;1;5.30
Trumunegicator;Philip;Zuniga;2007-03-03;168;4;9.84
Upzapepistor;Myron;Sweeney;1959-06-01;222;2;1.16
Tuperollistor;Alfredo;Hester;1965-10-17;124;9;2.32
Grodudicower;Bobbi;Richardson;1990-02-01;114;5;6.74
Qwitinilower;Tia;Mckenzie;1991-11-27;379;4;7.07
Enderadover;Elias;Riggs;1979-12-13;53;3;4.89
Tuppickollan;Serena;Cherry;1967-11-23;21;2;2.70
Dopsipilover;Earnest;Reese;1965-11-08;391;8;2.33
Rapquestedgex;Kelvin;Berger;1990-03-16;107;2;6.76
Upglibexicator;Guadalupe;Lee;1991-08-09;317;0;7.01
Truhupackower;James;Nelson;1992-02-13;324;0;7.11
Qwirobackistor;Kimberley;Reid;1984-10-20;382;10;5.78
Trunipollazz;Larry;Lin;1990-04-24;77;1;6.78
Froweronentor;Summer;Alvarado;1961-02-06;238;10;1.47
Winzapedar;Marcy;Richards;1974-09-08;347;9;3.94
Rapglibplentor;Salvatore;Drake;1982-11-06;132;8;5.42
Adsipexazz;Garrett;Grant;1959-12-20;310;7;1.26
Suptumadentor;Quincy;Terry;1959-11-04;249;10;1.24
Happebplex;Erica;Compton;1957-04-05;213;5;.77
Trucadommower;Steven;Moody;1969-09-24;422;9;3.04
Parerommantor;Bret;Perkins;1983-03-30;146;5;5.49
Inbanonover;Kerry;Mercer;1984-07-06;63;4;5.72
Qwizapopantor;Shirley;Little;1986-10-28;387;0;6.14
Parrobicentor;Janette;Silva;1985-05-24;259;2;5.88
Endbanackan;Nicole;Klein;1988-04-10;420;0;6.41
Varweredgan;Jeanette;Hughes;1975-08-14;89;3;4.11
Hapkilexentor;Sergio;Cooke;1977-07-22;174;0;4.46
Suptumilicator;Cecilia;Duncan;1993-02-07;163;6;7.29
Adbanackazz;Harold;Chandler;1975-09-01;186;4;4.12
Adjubaquex;Carmen;Harrington;1990-06-10;25;1;6.80
Varkilicazz;Abel;Harding;1988-03-12;353;7;6.39
Enddimollar;Whitney;Clayton;2004-12-17;81;3;9.44
Rapjubinover;Karen;Wallace;1969-04-23;86;2;2.96
Monsapedar;Mason;Rangel;1994-03-09;234;10;7.48
Reweredgan;Deborah;Robinson;1985-11-21;416;7;5.97
Surjubepex;Dale;Lam;1994-08-09;221;10;7.56
Thrujubegin;Arturo;Sampson;2006-05-02;71;7;9.69
Bartumimin;Albert;Leach;1964-04-04;380;0;2.04
Rapglibanistor;Jessica;Benjamin;1993-05-12;270;0;7.33
Kliquestexar;Hollie;Knapp;1966-07-31;291;4;2.46
Cipglibedicator;Gerard;Hanson;1959-09-08;112;1;1.21
Dopsipefazz;Jeffrey;Salazar;1962-05-13;439;4;1.70
Barsipilistor;Mason;Hobbs;1960-03-10;29;8;1.30
Haprobimantor;Tami;Fletcher;2006-12-02;347;6;9.80
Tipsapepor;Matthew;Ayers;1994-01-12;145;2;7.46
Monzapanan;Mario;Olson;1968-09-20;93;2;2.85
Zeeglibplan;Garry;Dunlap;1976-05-03;329;5;4.24
Doptinadax;Kerrie;Beasley;2000-01-26;439;6;8.55
Fropebepan;Tami;Hunter;1971-09-18;104;3;3.40
Surtumomman;Valerie;Petty;1963-11-19;450;1;1.97
Frobanilover;Jesus;Dorsey;1979-06-22;209;8;4.81
Hapbanedor;Salvatore;Briggs;1994-01-04;51;2;7.45
Rezapanower;Billy;Chang;1998-01-08;244;7;8.18
Unpebupor;Lawrence;Gilbert;1967-12-30;126;2;2.72
Trupebegantor;Eduardo;Sexton;2006-11-30;41;7;9.80
Adkilexex;Rachael;Blevins;1975-08-28;123;0;4.11
Winpebadex;Laura;Mc Daniel;1980-08-04;285;2;5.01
Dopzapeficator;Malcolm;Villanueva;1988-05-25;316;7;6.43
Montinimar;Anne;Leach;1954-10-25;145;4;.32
Varquestexantor;Rudy;Harrington;1969-04-15;308;0;2.96
Emmunex;Jack;Joyce;1955-05-24;330;2;.43
Vardimplor;Monique;Strong;1982-10-15;309;6;5.41
Moncadicor;Chanda;Lewis;1998-03-10;223;4;8.21
Rekilaquantor;Clinton;Sims;2007-10-07;100;0;9.95
Winvenewantor;Cornelius;Bradley;1956-05-30;414;3;.62
Grokilonicator;Eddie;Yates;1995-02-26;260;7;7.66
Rapmunexantor;Craig;Gordon;1968-06-29;314;8;2.81
Thrujubopower;Josh;Ali;2004-02-15;294;1;9.29
Thruerinax;Amber;Bowman;1983-03-19;272;2;5.49
Barhupamex;Harold;Aguirre;1988-01-30;143;9;6.37
Intanonazz;Freddie;Keith;1984-07-06;79;1;5.72
Repebanax;Joni;Gibbs;2003-09-17;381;6;9.21
Unquestupex;Marsha;Buchanan;1974-06-25;429;10;3.90
Tuperackicator;Neil;Shaw;1998-09-05;373;1;8.30
Cipzapegazz;Jamey;George;1963-01-17;328;7;1.82
Mondimegex;Wendi;Frey;1973-11-18;158;0;3.79
Thrunipedex;Pablo;Barrett;1977-04-29;51;7;4.42
Emzapopex;Craig;Dickson;1987-11-26;58;4;6.34
Fromunedex;Theresa;Mc Gee;1999-05-13;132;10;8.42
Inhupupentor;Iris;Wheeler;1972-07-22;345;9;3.55
Grotinegazz;Duane;Fields;2007-04-12;210;8;9.86
Tiperedex;Drew;Vega;1985-06-27;185;5;5.90
Unpickopower;Norma;Parker;1974-05-23;76;3;3.88
Ciptumomman;Jose;Mejia;1964-10-14;186;2;2.14
Surfropewentor;Howard;Kemp;1963-12-20;266;3;1.99
Qwiquestadantor;Ted;Estrada;2002-03-08;320;5;8.94
Zeesipollax;Rusty;Marshall;1959-12-11;288;6;1.26
Thrumunepazz;Charlene;Chung;1954-04-26;411;10;.23
Winjubonicator;Brandon;Brown;1995-04-09;210;3;7.68
Parkililentor;Darin;Patel;1963-03-27;310;7;1.86
Varcadepan;Kenny;Cross;1967-01-06;386;8;2.54
Monkilommover;Julian;Tucker;1970-12-09;206;0;3.26
Zeequestewazz;Terrance;Smith;1962-06-11;253;6;1.71
Winpebower;Keith;Mc Gee;1977-01-27;413;10;4.37
Truwerpazz;Tania;Bentley;1964-03-10;412;1;2.03
Trujubewistor;Trisha;Nicholson;1984-11-23;254;6;5.79
Varpebepax;Sabrina;Richards;1972-03-05;234;0;3.48
Advenepex;Jeremy;Mc Gee;1960-06-03;380;7;1.34
Tipwerepantor;Carrie;Wagner;2003-07-06;383;2;9.18
Zeemunamazz;Shaun;Vega;2006-11-16;335;6;9.79
Rapmunazz;Vivian;Forbes;1953-03-24;230;5;.04
Varwerpopin;Sabrina;Bird;1980-03-18;53;3;4.94
Frovenimover;Lawrence;Brady;1969-11-09;184;3;3.06
Uppebimin;Gilbert;Marks;1991-08-20;411;4;7.02
Unzapommantor;Joe;Fowler;1987-05-16;389;0;6.24
Surwerupantor;George;Pena;1983-10-06;279;2;5.59
Hapzapegex;Faith;Parker;1972-07-13;73;3;3.55
Frocadanicator;Kris;Newman;2007-05-05;322;6;9.88
Unwerackax;Arlene;Martin;1957-12-13;249;6;.89
Grojubedgantor;Rosemary;Howe;1986-01-13;334;7;6.00
Emtanilazz;Christine;Copeland;2006-05-01;90;4;9.69
Tupnipimower;Harry;Goodman;2000-09-08;245;8;8.67
Hapbanedicator;John;Estrada;1997-01-12;201;7;8.00
Partinamex;Ben;Salinas;1990-04-05;250;6;6.77
Rapquestamicator;Darnell;Elliott;1970-01-04;115;3;3.09
Suphupanar;Kendall;Cline;1977-11-27;162;8;4.52
Inpebommax;Yolanda;Andrade;1961-05-26;251;3;1.52
Groerplazz;Ruth;Kirby;1986-05-27;54;1;6.07
Adbananentor;Marci;Collier;1996-10-18;284;8;7.96
Varwerpicower;Cecil;Booker;1962-03-24;112;9;1.67
Lomsipplazz;Melinda;Higgins;1988-03-19;422;0;6.40
Frocadexex;Aisha;Pearson;1967-03-07;353;8;2.57
Zeebanepower;Enrique;Choi;1961-11-09;101;9;1.61
Sursipanan;Claude;Gutierrez;1972-12-24;413;6;3.63
Hapwerpamax;Glenda;Ford;1974-01-25;208;0;3.83
Inzapexar;Brock;Velasquez;1966-07-30;323;0;2.46
Dopbanedgor;Ashley;Gibbs;1994-04-08;146;10;7.50
Adglibaquantor;Janelle;Bailey;2005-05-29;34;10;9.52
Tipmunewor;Shelby;Terry;1987-06-29;411;0;6.27
Hapveninex;Franklin;Shannon;1986-02-23;92;1;6.02
Tupjubewan;Darren;Ellison;1954-09-15;375;10;.30
Surzapupicator;Blake;O'Connell;1969-11-26;122;10;3.07
Rapvenamazz;Sheila;Morse;1992-05-23;126;2;7.16
Rekiladan;Brandi;Myers;2000-06-27;247;4;8.63
Dopdudanazz;James;Bishop;1972-05-01;133;3;3.51
Froerimicator;Nathan;Cohen;1980-01-26;175;4;4.92
Monkilackin;Simon;Bonilla;1968-08-18;18;2;2.84
Parquestaquicator;Lamont;Reese;1990-10-04;115;9;6.86
Inwerpicex;Rebekah;Weaver;1985-05-31;248;2;5.89
Emvenedower;Dante;Goodwin;1988-03-15;438;0;6.40
Upzapicex;Dan;Oliver;1982-08-27;265;2;5.39
Emdudplex;Brandon;Mckay;1960-08-07;417;0;1.38
Emtanaquar;Nora;Finley;2004-05-14;179;4;9.33
Surtinefin;Stephen;Greene;1962-03-27;327;7;1.67
Thruwerpewax;Hollie;Chase;1964-11-25;238;3;2.16
Supmunedgicator;Clyde;Gay;1974-04-29;159;0;3.87
Infropedax;Lara;Herring;1981-11-26;22;3;5.25
Monkilax;Evelyn;Stokes;1980-03-08;20;10;4.94
Thrufropewan;Carrie;Andrews;1960-01-25;315;7;1.28
Varrobilor;Donnell;Kelley;1994-04-14;267;3;7.50
Untinimover;Jeremy;Benjamin;1976-07-01;20;3;4.27
Rezapanor;Rodney;Harrell;1993-10-09;197;10;7.41
Bardimonar;Jocelyn;Cisneros;1971-08-17;113;10;3.38
Barsapegor;Krystal;Hanson;1994-04-14;289;4;7.50
Klitinonex;Denise;Odom;1971-08-30;364;5;3.39
Embanican;Lea;Hurst;1994-01-17;327;8;7.46
Zeenipommistor;Sheri;Diaz;1971-05-11;402;5;3.33
Thrubanopantor;Johnathan;Frazier;2004-11-16;222;8;9.43
Frotinegantor;Amie;Olsen;1970-07-26;221;4;3.19
Qwibanommex;Daphne;Melendez;1973-10-17;83;10;3.78
Insipplower;Ross;Hurley;1997-06-30;151;3;8.09
Tupsapepazz;Lamont;Cowan;1975-02-15;56;3;4.02
Adsipopor;Adrienne;Pollard;1972-11-07;361;5;3.60
Klimunedax;Tanya;Parks;1979-10-20;175;4;4.87
Endmunepower;Sidney;Thompson;1984-05-01;410;7;5.69
Insapicex;Roger;O'Neal;1989-06-06;419;4;6.62
Dopnipaquax;Alicia;Golden;1961-04-19;136;5;1.50
Thrupebewantor;Cedric;Aguilar;2004-07-18;405;2;9.37
Winveninax;Mike;Hanson;1970-12-06;134;3;3.25
Monsapplantor;Tricia;Hayden;1997-12-09;391;9;8.17
Frojubedgax;Daryl;Whitehead;1962-04-11;162;6;1.68
Endwerpewistor;Marlene;Chen;1978-08-22;153;4;4.66
Wintanexentor;Randi;Yang;1953-12-27;257;9;.17
Qwidudimicator;Russell;Burns;1961-08-06;297;7;1.56
Winvenommazz;Julian;Mc Dowell;1987-07-29;297;6;6.28
Kliglibackover;Tia;Shepherd;1980-08-13;23;0;5.02
Partanegin;Kristine;Juarez;1970-10-24;192;3;3.23
Rapfropackentor;Rose;Wiggins;2007-08-15;225;1;9.93
Adtuminax;Constance;Robles;1961-01-29;192;2;1.46
Qwierin;Sharon;Gordon;2007-09-28;66;0;9.95
Requestanin;Seth;Zamora;1992-09-02;318;7;7.21
Trupickaquex;Danielle;Mooney;1967-01-31;143;10;2.56
Klicadommazz;Judith;Huber;1998-05-05;169;3;8.24
Klifropaquin;Jeremiah;Hunter;2001-03-17;162;7;8.76
Uncadackar;Nick;Landry;1962-08-25;89;9;1.75
Barwerpepan;Rex;Hayes;1968-12-06;195;10;2.89
Winzapopentor;Edward;Green;2006-04-12;26;10;9.68
Klitaneficator;Franklin;Stokes;2006-02-09;288;9;9.65
Uppebadicator;Victor;Woods;1981-10-29;334;10;5.24
Intinepover;Julian;Underwood;1986-04-14;257;6;6.05
Fromunackax;Zachary;Harvey;1961-09-17;223;10;1.58
Tuptumonar;Colin;Sweeney;1971-10-03;247;4;3.40
Unweredazz;Darrick;O'Connell;1973-03-11;345;5;3.67
Endglibexin;Jose;Miranda;1964-08-14;182;2;2.11
Supquestilar;Salvador;Gates;1998-09-15;305;8;8.31
Varpickar;Celeste;Reid;1960-07-13;226;10;1.36
Supjubicin;Tammie;Mccann;1995-10-01;74;6;7.77
Rapbanonin;John;Fuentes;1977-07-26;22;10;4.46
Empickonex;Michele;Riley;1985-11-26;367;0;5.98
Hapvenplover;Sally;Madden;1983-06-22;270;9;5.54
Rapzapinan;Elijah;Watts;1966-01-11;40;5;2.36
Tuptinimower;Bobby;Hancock;1985-05-11;68;1;5.88
Emtanepax;Josephine;Mccoy;1962-04-04;336;7;1.68
Barcadopax;Kareem;Vazquez;1970-02-15;375;8;3.11
Redudadower;Joy;Casey;1985-01-03;123;8;5.81
Tupcadax;Freddie;Foley;2005-11-09;318;9;9.61
Partumedgazz;Mike;Austin;1992-10-13;391;1;7.23
Zeepickplover;Jesse;Lam;1963-01-11;267;3;1.82
Repebonantor;Megan;Farrell;1959-09-18;442;8;1.22
Unbanaquentor;William;Wang;1999-01-17;358;5;8.37
Monquestonentor;Sherrie;Newman;1976-03-27;152;4;4.22
Bartinollover;Tonia;Farmer;1971-09-26;194;3;3.40
Haptanaquor;Samantha;Duffy;1996-10-18;47;6;7.96
Undimackistor;Kristina;Le;1970-10-29;173;3;3.24
Varrobimin;Elaine;Rivera;1989-02-14;216;2;6.56
Thrukilewicator;Wendi;Avery;1983-06-01;25;4;5.52
Supzapupex;Larry;Marshall;1984-10-12;337;10;5.77
Tippebicazz;Kendall;Hickman;1979-08-24;216;8;4.84
Barcadedgistor;Carl;Owen;1970-02-25;104;6;3.11
Emtanepazz;Armando;Cordova;1968-05-26;232;7;2.79
Varerplin;Sharon;Marks;1991-02-25;410;4;6.93
Unsapimex;Lara;Tucker;1963-03-10;299;7;1.85
Unwerexazz;Vanessa;Reyes;1975-09-20;89;3;4.13
Upcadinower;Martin;Berger;1992-08-24;328;7;7.20
Haprobollistor;Kris;Delacruz;1989-03-25;185;9;6.58
Qwicadicistor;Veronica;Ruiz;1998-07-10;366;1;8.27
Dopvenefover;Lawrence;Swanson;1958-06-14;259;10;.99
Winsapedgan;Rochelle;Hinton;1997-05-14;92;6;8.06
Unpickupar;Morgan;Wilkins;1970-11-21;442;9;3.25
Grobanewistor;Amy;Gross;1980-01-16;89;7;4.91
Trujubexin;Melissa;Farrell;1992-11-13;399;4;7.24
Endcadefazz;Guadalupe;Costa;2001-03-30;188;4;8.77
Tiperexex;Jerome;Hines;1974-09-19;309;1;3.94
Trueregin;Donald;Houston;1985-08-10;373;3;5.92
Adweredantor;Sarah;Landry;1994-09-17;43;5;7.58
Unweregazz;Bethany;Cook;1960-04-24;268;6;1.32
Thrujubin;Janette;Lester;1957-10-29;257;2;.87
Winglibamax;Vivian;Fuentes;1981-03-21;245;5;5.13
Zeekilewan;Bennie;Orozco;1969-03-14;57;9;2.94
Renipepex;Jermaine;Vargas;1964-10-16;221;10;2.14
Endwerplentor;Marilyn;Nixon;1984-02-24;255;9;5.66
Tiprobimor;Kristy;Vazquez;1996-04-01;210;7;7.86
Unrobamentor;Lena;Kaufman;1999-05-25;296;1;8.43
Klivenonar;Joanna;Jacobson;1990-10-13;426;4;6.86
Inzapaquar;Charlie;Schultz;1963-01-18;122;2;1.82
Lomeropentor;Lakeisha;David;1997-12-23;47;6;8.17
Dopsapaquax;Marilyn;Livingston;1982-12-15;217;9;5.44
Monglibaquicator;Rhonda;Shepherd;1955-05-15;189;1;.43
Frojubepax;Rachelle;Acosta;1983-07-01;417;0;5.54
Bareregor;Jose;Bradshaw;1968-04-17;297;4;2.78
Monsipedar;Chadwick;Washington;1983-10-01;339;10;5.59
Varsipimazz;Steve;Woods;1969-02-08;309;8;2.92
Rapwerimin;Loretta;King;1960-05-31;368;3;1.34
Frofropadantor;Chastity;Craig;1970-07-04;152;3;3.18
Wintinplicator;Gina;Pearson;2000-04-26;310;5;8.60
Adtanepex;Amy;Dunn;1955-11-04;192;9;.51
Retinewistor;Rex;Mckenzie;1962-08-22;430;8;1.75
Doprobackor;Tameka;Petersen;1977-08-11;26;10;4.47
Emsapicazz;Erich;Mosley;1988-11-23;207;10;6.52
Dopsipilantor;Cesar;Benson;1994-06-26;207;7;7.54
Tupdimegistor;Jared;Greene;2000-05-29;77;10;8.61
Trutumedgan;Garry;Santos;2003-06-01;316;5;9.16
Montumollex;Colin;Ferguson;2000-02-21;275;4;8.57
Dopdimanex;Carmen;Riley;1987-09-02;371;0;6.30
Incadewentor;Latoya;Rush;1959-03-07;410;0;1.12
Surbanexan;Gabriel;Hardy;1982-12-28;415;0;5.45
Klivenommex;Demond;Cooke;2005-01-07;336;2;9.45
Trumunilex;Jess;Walters;1964-03-10;125;2;2.03
Gromunonan;Quincy;Petersen;1984-02-11;147;8;5.65
Barsapinor;Timmy;Key;1981-10-23;399;7;5.23
Redudackan;Marshall;Kennedy;1978-08-03;218;1;4.65
Frokiladicator;Demond;Rosales;1956-07-25;110;4;.64
Monwerexover;Brooke;Sullivan;1963-06-12;176;10;1.89
Parvenicower;Darlene;Newman;1958-05-13;333;7;.97
Dopzapackar;Jerome;Lewis;1992-04-02;428;8;7.13
Adweropax;Wayne;Frazier;2002-11-26;218;8;9.07
Tuprobackentor;Rocky;Greene;1971-10-16;20;6;3.41
Klijubplentor;Alfredo;Dennis;1992-12-08;113;9;7.26
Truhupommantor;Maria;Frank;1982-08-07;223;5;5.38
Klirobax;Jordan;Bentley;1999-04-03;156;3;8.40
Tipglibamistor;Elisa;Moran;1968-07-26;166;3;2.83
Fropebepazz;Myra;Frye;1956-01-31;87;8;.56
Barrobimicator;Lindsey;Bruce;1966-11-15;126;6;2.52
Tuppickupazz;Cedric;Livingston;1955-08-06;163;5;.47
Varwerpilan;Eugene;Dean;2004-04-16;200;8;9.32
Mondimollex;Randi;Mueller;1976-10-05;108;7;4.32
Qwikilanan;Irma;Rosario;1993-10-31;270;0;7.42
Lomsapilover;Judith;Murray;1957-03-19;174;9;.76
Growerinentor;Abel;Pearson;1993-04-15;80;9;7.32
Varsapentor;Kenny;Savage;1991-11-14;302;7;7.06
Truquestupicator;Marisa;Shepherd;2005-09-02;288;9;9.57
Lompickamex;Devon;Mills;1988-03-20;249;2;6.40
Klipickinantor;Cristina;Shah;2000-04-28;55;6;8.60
Ciptinepover;Rosa;Joseph;1982-09-18;300;2;5.40
Unpebedgar;Devin;Cuevas;1972-05-19;162;0;3.52
Monpebonax;Donnie;Rosales;1988-09-24;389;4;6.49
Unglibepin;Julian;Hicks;2004-02-09;385;2;9.29
Cipdimexentor;Alvin;Mosley;1964-09-23;376;0;2.13
Varcadonistor;Melisa;Sosa;1984-08-08;34;4;5.74
Retumepex;Howard;Hanna;1988-01-21;158;2;6.37
Parzapex;Toby;Mc Mahon;2000-12-15;161;3;8.71
Monsipollazz;Jesse;Ballard;1971-10-07;110;6;3.41
Endtanepover;Javier;Frey;1979-04-04;60;3;4.77
Indimefar;Josh;Luna;1954-09-08;36;4;.30
Supdudefex;Preston;Harrell;1997-09-14;96;2;8.12
Survenilazz;Amelia;Petersen;1980-03-09;247;5;4.94
Grotanaquor;Jackie;Hill;1958-08-30;150;9;1.02
Lomtinedgar;Preston;Morse;1955-01-19;52;7;.37
Insapackistor;Todd;Delgado;1986-04-03;175;5;6.04
Frotinackantor;Shelby;Branch;2005-06-01;110;7;9.53
Lomerexar;Lucas;Archer;1992-01-19;189;2;7.10
Cipkilackower;Mary;Robertson;1977-09-14;334;9;4.49
Emjubupar;Kate;Ross;2003-01-04;253;4;9.09
Monsipanentor;Gerald;Sheppard;1997-08-22;69;6;8.11
Suppickopor;Bryan;Ritter;1978-12-01;59;3;4.71
Admunedgower;Dallas;Cortez;1997-04-30;441;2;8.05
Qwijubplax;Lance;Woodard;1989-07-18;208;10;6.64
Emzapplicator;Russell;Adkins;1997-07-19;130;10;8.09
Tupdimedgan;Benjamin;Mc Neil;1991-05-18;188;2;6.97
Endkilplin;Olivia;Griffith;1990-06-01;320;3;6.80
Qwipickopan;Elias;Lamb;1997-02-27;162;10;8.02
Supdimamantor;Wendy;Nixon;2000-10-22;180;4;8.69
Endweror;Marlon;Gamble;1978-11-26;62;3;4.70
Tuptumilantor;Robin;Waller;2000-03-29;295;1;8.58
Tuppebonar;Darnell;Bauer;1984-02-21;128;8;5.66
Winerefin;Ty;Mayo;1998-05-16;420;9;8.24
Inzapegower;Edwin;Livingston;1964-03-28;72;9;2.04
Tuphupefin;Lawanda;Pruitt;1988-09-23;326;7;6.49
Parwerefar;Ralph;Curtis;1993-12-25;189;6;7.45
Endtinackor;Kenny;Farmer;1956-07-09;56;4;.64
Lompickommicator;Dennis;Robertson;2006-10-17;284;5;9.78
Trucadamar;Jacquelyn;Meyers;1960-01-24;95;5;1.28
Trumunedgan;Ernesto;Roth;1961-05-03;97;5;1.51
Bartinicantor;Cecil;Monroe;2002-07-17;83;3;9.00
Grosipewor;Xavier;Murillo;2006-04-18;445;10;9.68
Enderedistor;Nicole;Frye;2004-10-20;74;7;9.41
Suppebex;Micheal;Church;1984-10-28;44;4;5.78
Qwipickilicator;Christi;Duncan;1965-03-10;108;2;2.21
Tipsapedin;Jodie;Mc Donald;1965-11-21;84;2;2.34
Rappickonar;Sam;Lam;1977-02-08;403;2;4.38
Qwiwerpupistor;Mandi;Wolf;1971-02-07;408;9;3.29
Grohupupower;Penny;Simmons;1991-10-14;236;3;7.05
Unpebaquentor;Andres;Dodson;1978-12-16;450;3;4.71
Frotanadentor;Jaime;Becker;1995-11-14;421;1;7.79
Endrobewover;Marcos;Wu;2007-10-26;131;4;9.96
Tipwerpimar;Elton;Dawson;1980-12-20;405;10;5.08
Suppickanax;Leon;Brooks;1993-03-16;446;8;7.31
Emtumimin;Jonathan;Mcgrath;1955-09-07;437;0;.48
Cipjubinicator;Marilyn;Quinn;1956-10-19;259;9;.69
Surrobollazz;Ian;Lin;1983-01-20;171;8;5.46
Dopdimaquor;Connie;Novak;2007-03-10;199;5;9.85
Emjubommistor;Xavier;Moon;1959-07-25;273;3;1.19
Trududegin;Melinda;Gentry;1981-05-09;205;9;5.15
Froglibamex;Mia;Flynn;2002-03-09;164;0;8.94
Undudistor;Benny;Hardy;1998-11-24;446;2;8.34
Monmunollentor;Rochelle;Hendrix;1953-02-24;432;10;.02
Monfropewower;Sidney;Briggs;2000-11-11;65;3;8.70
Tipmunimazz;Melissa;Kelly;1987-01-05;215;2;6.18
Zeemunplentor;Preston;Donaldson;1978-07-19;359;6;4.64
Supvenegex;Tanisha;Blackwell;2007-05-02;127;4;9.87
Winglibadantor;Katie;Ho;1968-12-13;193;7;2.89
Inwerplax;Lamar;Chambers;1977-12-07;274;1;4.53
Happebedan;Warren;Conner;1969-01-25;313;0;2.92
Endtuminax;Xavier;Mckay;1982-09-25;136;1;5.40
Barkilplazz;Joey;Hurley;2006-08-16;277;2;9.74
Frosapistor;Corey;Juarez;1984-12-27;111;8;5.81
Rapwerpadower;Joe;Dillon;1969-05-14;255;4;2.97
Truweramover;Reginald;Olsen;1953-06-21;188;1;.08
Endkilupistor;Franklin;Coffey;1999-05-07;74;6;8.42
Groquestplor;Dawn;Kim;1982-02-11;435;7;5.29
Dopzapazz;Kenneth;Moody;1965-07-03;414;8;2.27
